<?xml version="1.0" encoding="utf-8"?><!-- Uploaded to: SVG Repo, www.svgrepo.com, Generator: SVG Repo Mixer Tools -->
<svg width="800px" height="800px" viewBox="0 0 24 24" fill="none" xmlns="http://www.w3.org/2000/svg">
<path d="M20 10V7C20 5.89543 19.1046 5 18 5H6C4.89543 5 4 5.89543 4 7V10M20 10H4M20 10V10.75M4 10V19C4 20.1046 4.89543 21 6 21H12M8 3V7M16 3V7" stroke="#3E3E3E" stroke-width="2" stroke-linecap="round"/>
<path d="M17.5356 14V17.5355M17.5356 21.0711V17.5355M17.5356 17.5355L21.0712 17.5355M17.5356 17.5355H14.0001" stroke="#FC6736" stroke-width="3" stroke-linecap="round"/>
</svg>